Longitude (deg),Angular Size (arcmin),V_obs   (km/s)
42.084,22.021,43.349
324.389,11.804,6.490
37.795,33.434,50.832
32.885,8.395,-26.204
3.223,12.921,6.402
20.210,11.118,5.860
349.567,9.842,1.200
320.306,9.165,27.783
52.124,145.785,5.649
349.172,7.385,10.075
350.473,22.604,-44.348
358.057,11.277,-1.328
5.374,25.227,26.064
352.110,26.733,-38.882
295.517,32.158,-13.855
68.252,14.302,-31.171
317.927,12.000,10.133
351.601,12.002,-9.170
340.847,10.236,2.216
48.467,15.185,0.281
54.646,47.780,23.393
2.873,12.457,4.408
19.113,26.446,74.010
354.688,50.500,-8.411
4.657,11.867,5.809
69.127,28.364,2.083
15.999,14.289,35.476
344.755,10.771,-2.264
